\relax 
\providecommand\hyper@newdestlabel[2]{}
\providecommand\babel@aux[2]{}
\@nameuse{bbl@beforestart}
\providecommand\HyperFirstAtBeginDocument{\AtBeginDocument}
\HyperFirstAtBeginDocument{\ifx\hyper@anchor\@undefined
\global\let\oldcontentsline\contentsline
\gdef\contentsline#1#2#3#4{\oldcontentsline{#1}{#2}{#3}}
\global\let\oldnewlabel\newlabel
\gdef\newlabel#1#2{\newlabelxx{#1}#2}
\gdef\newlabelxx#1#2#3#4#5#6{\oldnewlabel{#1}{{#2}{#3}}}
\AtEndDocument{\ifx\hyper@anchor\@undefined
\let\contentsline\oldcontentsline
\let\newlabel\oldnewlabel
\fi}
\fi}
\global\let\hyper@last\relax 
\gdef\HyperFirstAtBeginDocument#1{#1}
\providecommand\HyField@AuxAddToFields[1]{}
\providecommand\HyField@AuxAddToCoFields[2]{}
\bibstyle{plainnat}
\citation{Chang2021}
\citation{Chang2021}
\babel@aux{english}{}
\@writefile{tdo}{\contentsline {todo}{title: Reproduction of skin feature tracking using deep feature encodings}{1}{section*.2}\protected@file@percent }
\pgfsyspdfmark {pgfid1}{11474024}{39828292}
\@writefile{tdo}{\contentsline {todo}{ME should be capital ,correct bib entry for the article}{1}{section*.3}\protected@file@percent }
\pgfsyspdfmark {pgfid2}{11474024}{38254559}
\@writefile{lof}{\contentsline {figure}{\numberline {1}{\ignorespaces Architecture of an autoencoder network.\relax }}{1}{figure.caption.7}\protected@file@percent }
\providecommand*\caption@xref[2]{\@setref\relax\@undefined{#1}}
\newlabel{fig:1}{{1}{1}{Architecture of an autoencoder network.\relax }{figure.caption.7}{}}
\@writefile{lof}{\contentsline {figure}{\numberline {2}{\ignorespaces Current structure of an autoencoder network used in experiment.\relax }}{1}{figure.caption.9}\protected@file@percent }
\newlabel{fig:2}{{2}{1}{Current structure of an autoencoder network used in experiment.\relax }{figure.caption.9}{}}
\@writefile{tdo}{\contentsline {todo}{make fig 1 larger, make fig 2 go top to bottom}{1}{section*.8}\protected@file@percent }
\pgfsyspdfmark {pgfid3}{27651483}{20645383}
\bibdata{references}
\bibcite{Chang2021}{{1}{2021}{{Chang}}{{}}}
\@writefile{lot}{\contentsline {table}{\numberline {1}{\ignorespaces Mean errors (in pixels) for feature matching using the same reference feature.\relax }}{2}{table.caption.15}\protected@file@percent }
\newlabel{tab:table 1}{{1}{2}{Mean errors (in pixels) for feature matching using the same reference feature.\relax }{table.caption.15}{}}
\@writefile{tdo}{\contentsline {todo}{remove all lines from table to only have top line, middle line after column headers and bottom line. Conditions should be capital}{2}{section*.14}\protected@file@percent }
\pgfsyspdfmark {pgfid4}{11474024}{41356327}
\newlabel{sec:ref}{{}{2}{Conclusions}{section*.17}{}}
\@writefile{lof}{\contentsline {figure}{\numberline {3}{\ignorespaces Sorted errors for matching the face mole under static conditions (top-left), nose tip under static conditions (top-right), face mole under bike conditions (bottom-left), and nose tip under bike conditions (bottom-right).\relax }}{3}{figure.caption.21}\protected@file@percent }
\newlabel{fig:3}{{3}{3}{Sorted errors for matching the face mole under static conditions (top-left), nose tip under static conditions (top-right), face mole under bike conditions (bottom-left), and nose tip under bike conditions (bottom-right).\relax }{figure.caption.21}{}}
\@writefile{tdo}{\contentsline {todo}{Figures 3 and 4 need to be larger, correct DEF to DFE}{3}{section*.20}\protected@file@percent }
\pgfsyspdfmark {pgfid5}{19562753}{19070509}
\@writefile{lof}{\contentsline {figure}{\numberline {4}{\ignorespaces Sorted errors for matching the face mole under static conditions (top-left), nose tip under static conditions (top-right), face mole under bike conditions (bottom-left), and nose tip under bike conditions (bottom-right).\relax }}{4}{figure.caption.22}\protected@file@percent }
\newlabel{fig:4}{{4}{4}{Sorted errors for matching the face mole under static conditions (top-left), nose tip under static conditions (top-right), face mole under bike conditions (bottom-left), and nose tip under bike conditions (bottom-right).\relax }{figure.caption.22}{}}
\@writefile{lof}{\contentsline {figure}{\numberline {5}{\ignorespaces Sorted errors for matching the face mole under static conditions (top-left), nose tip under static conditions (top-right), face mole under bike conditions (bottom-left), and nose tip under bike conditions (bottom-right).\relax }}{4}{figure.caption.23}\protected@file@percent }
\newlabel{fig:5}{{5}{4}{Sorted errors for matching the face mole under static conditions (top-left), nose tip under static conditions (top-right), face mole under bike conditions (bottom-left), and nose tip under bike conditions (bottom-right).\relax }{figure.caption.23}{}}
\gdef \@abspage@last{4}
